<?xml version="1.0" encoding="UTF-8" standalone="no"?>
<svg
   xmlns:dc="http://purl.org/dc/elements/1.1/"
   xmlns:cc="http://creativecommons.org/ns#"
   xmlns:rdf="http://www.w3.org/1999/02/22-rdf-syntax-ns#"
   xmlns:svg="http://www.w3.org/2000/svg"
   xmlns="http://www.w3.org/2000/svg"
   version="1.1"
   id="svg2"
   xml:space="preserve"
   width="294.43158"
   height="23.903999"
   viewBox="0 0 294.43158 23.903999"><metadata
     id="metadata8"><rdf:RDF><cc:Work
         rdf:about=""><dc:format>image/svg+xml</dc:format><dc:type
           rdf:resource="http://purl.org/dc/dcmitype/StillImage" /><dc:title></dc:title></cc:Work></rdf:RDF></metadata><defs
     id="defs6"><linearGradient
       x1="0"
       y1="0"
       x2="1"
       y2="0"
       gradientUnits="userSpaceOnUse"
       gradientTransform="matrix(5952.8,0,0,-5952.8,0,2462.02)"
       spreadMethod="pad"
       id="linearGradient22"><stop
         style="stop-opacity:1;stop-color:#dab89c"
         offset="0"
         id="stop14" /><stop
         style="stop-opacity:1;stop-color:#dab89c"
         offset="0.00561798"
         id="stop16" /><stop
         style="stop-opacity:1;stop-color:#ddd3bd"
         offset="0.511236"
         id="stop18" /><stop
         style="stop-opacity:1;stop-color:#dab89c"
         offset="1"
         id="stop20" /></linearGradient></defs><g
     transform="matrix(1.3333333,0,0,-1.3333333,-58.974511,167.84482)"
     style="fill:#000000"
     id="g1372"><path
       id="path118"
       style="fill:#000000;fill-opacity:1;fill-rule:evenodd;stroke:none;stroke-width:0.1"
       d="m 162.23858,125.52462 c -0.504,-3.53 -3.6,-5.69 -5.976,-4.537 0.36,-1.584 2.161,-2.088 3.024,-1.872 2.16,0.504 3.024,2.735 2.952,6.409" /><path
       id="path120"
       style="fill:#000000;fill-opacity:1;fill-rule:evenodd;stroke:none;stroke-width:0.1"
       d="m 162.31058,125.88362 c -5.328,-1.439 -7.488,-4.896 -7.272,-7.992 l -1.224,-0.432 c 0,4.176 3.24,7.416 8.496,8.424" /><path
       id="path122"
       style="fill:#000000;fill-opacity:1;fill-rule:evenodd;stroke:none;stroke-width:0.1"
       d="m 146.47058,108.31542 c 0.504,3.5273 3.672,5.6871 5.976,4.5352 -0.36,1.5839 -2.087,2.0898 -2.952,1.873 -2.16,-0.5039 -3.096,-2.7359 -3.024,-6.4082" /><path
       id="path124"
       style="fill:#000000;fill-opacity:1;fill-rule:evenodd;stroke:none;stroke-width:0.1"
       d="m 146.47058,107.95562 c 5.256,1.4399 7.488,4.895 7.2,7.993 l 1.296,0.431 c 0,-4.1759 -3.312,-7.4162 -8.496,-8.424" /><path
       id="path126"
       style="fill:#000000;fill-opacity:1;fill-rule:evenodd;stroke:none;stroke-width:0.1"
       d="m 146.32658,125.37962 c 3.528,-0.721 5.472,-4.033 4.104,-6.264 1.584,0.215 2.304,1.944 2.16,2.879 -0.36,2.161 -2.52,3.241 -6.264,3.385" /><path
       id="path128"
       style="fill:#000000;fill-opacity:1;fill-rule:evenodd;stroke:none;stroke-width:0.1"
       d="m 146.03858,125.52462 c 1.08,-5.473 4.321,-7.85 7.416,-7.85 l 0.36,-1.295 c -4.176,0.287 -7.2,3.817 -7.776,9.145" /><path
       id="path130"
       style="fill:#000000;fill-opacity:1;fill-rule:evenodd;stroke:none;stroke-width:0.1"
       d="m 162.38258,108.45952 c -3.455,0.7192 -5.4,4.0313 -4.031,6.2641 -1.657,-0.2172 -2.305,-1.943 -2.161,-2.8809 0.36,-2.1601 2.52,-3.2382 6.192,-3.3832" /><path
       id="path132"
       style="fill:#000000;fill-opacity:1;fill-rule:evenodd;stroke:none;stroke-width:0.1"
       d="m 162.74258,108.31542 c -1.08,5.4723 -4.319,7.8472 -7.488,7.8472 l -0.288,1.297 c 4.176,-0.289 7.2,-3.8161 7.776,-9.1442" /><path
       id="path134"
       style="fill:#000000;fill-opacity:1;fill-rule:evenodd;stroke:none;stroke-width:0.1"
       d="m 163.89458,117.02862 c 1.297,0.935 2.377,2.015 3.024,3.382 l 13.105,-3.455 -13.176,-3.384 c -0.289,1.2961 -1.441,2.447 -2.953,3.457" /><path
       id="path136"
       style="fill:#000000;fill-opacity:1;fill-rule:evenodd;stroke:none;stroke-width:0.1"
       d="m 227.97458,117.02862 c -3.815,0.504 -6.984,1.007 -9,1.726 l -38.951,-1.799 39.24,-1.7281 c 0.935,0.6481 4.248,1.2241 8.711,1.8011" /><path
       id="path138"
       style="fill:#000000;fill-opacity:1;fill-rule:evenodd;stroke:none;stroke-width:0.1"
       d="m 227.97458,117.02862 c 2.953,0.287 5.401,0.718 6.912,1.15 l 30.168,-1.223 -30.383,-1.152 c -0.648,0.432 -3.24,0.863 -6.697,1.225" /><path
       id="path140"
       style="fill:#000000;fill-opacity:1;fill-rule:evenodd;stroke:none;stroke-width:0.1"
       d="m 181.46258,112.05952 c 2.52,0 4.608,2.0879 4.608,4.6071 0,2.592 -2.088,4.68 -4.608,4.68 -2.592,0 -4.68,-2.088 -4.68,-4.68 0,-2.5192 2.088,-4.6071 4.68,-4.6071" /><path
       id="path142"
       style="fill:#000000;fill-opacity:1;fill-rule:evenodd;stroke:none;stroke-width:0.1"
       d="m 181.46258,113.86072 c 1.584,0 2.881,1.2219 2.881,2.8059 0,1.584 -1.297,2.881 -2.881,2.881 -1.584,0 -2.88,-1.297 -2.88,-2.881 0,-1.584 1.296,-2.8059 2.88,-2.8059" /><path
       id="path144"
       style="fill:#000000;fill-opacity:1;fill-rule:evenodd;stroke:none;stroke-width:0.1"
       d="m 227.75958,114.14742 c 1.656,0 2.952,1.2973 2.952,2.9512 0,1.656 -1.296,3.025 -2.952,3.025 -1.656,0 -3.024,-1.369 -3.024,-3.025 0,-1.6539 1.368,-2.9512 3.024,-2.9512" /><path
       id="path146"
       style="fill:#000000;fill-opacity:1;fill-rule:evenodd;stroke:none;stroke-width:0.1"
       d="m 227.75958,115.22752 c 1.008,0 1.871,0.8631 1.871,1.8711 0,1.01 -0.863,1.873 -1.871,1.873 -1.008,0 -1.873,-0.863 -1.873,-1.873 0,-1.008 0.865,-1.8711 1.873,-1.8711" /><path
       id="path148"
       style="fill:#000000;fill-opacity:1;fill-rule:evenodd;stroke:none;stroke-width:0.1"
       d="m 145.39058,117.02862 c -1.296,0.935 -2.376,2.015 -3.024,3.382 l -13.104,-3.455 13.176,-3.384 c 0.288,1.2961 1.44,2.447 2.952,3.457" /><path
       id="path150"
       style="fill:#000000;fill-opacity:1;fill-rule:evenodd;stroke:none;stroke-width:0.1"
       d="m 81.310984,117.02862 c 3.8156,0.504 6.9836,1.007 8.9996,1.726 l 38.951996,-1.799 -39.239996,-1.7281 c -0.9359,0.6481 -4.248,1.2241 -8.7116,1.8011" /><path
       id="path152"
       style="fill:#000000;fill-opacity:1;fill-rule:evenodd;stroke:none;stroke-width:0.1"
       d="m 81.310984,117.02862 c -2.952,0.287 -5.4,0.718 -6.9121,1.15 l -30.168,-1.223 30.384,-1.152 c 0.648,0.432 3.2398,0.863 6.6961,1.225" /><path
       id="path154"
       style="fill:#000000;fill-opacity:1;fill-rule:evenodd;stroke:none;stroke-width:0.1"
       d="m 127.82258,112.05952 c 2.592,0 4.68,2.0879 4.68,4.6071 0,2.592 -2.088,4.68 -4.68,4.68 -2.52,0 -4.608,-2.088 -4.608,-4.68 0,-2.5192 2.088,-4.6071 4.608,-4.6071" /><path
       id="path156"
       style="fill:#000000;fill-opacity:1;fill-rule:evenodd;stroke:none;stroke-width:0.1"
       d="m 127.82258,113.86072 c 1.584,0 2.88,1.2219 2.88,2.8059 0,1.584 -1.296,2.881 -2.88,2.881 -1.584,0 -2.88,-1.297 -2.88,-2.881 0,-1.584 1.296,-2.8059 2.88,-2.8059" /><path
       id="path158"
       style="fill:#000000;fill-opacity:1;fill-rule:evenodd;stroke:none;stroke-width:0.1"
       d="m 81.526984,114.14742 c 1.6558,0 3.0242,1.2973 3.0242,2.9512 0,1.656 -1.3684,3.025 -3.0242,3.025 -1.6563,0 -2.952,-1.369 -2.952,-3.025 0,-1.6539 1.2957,-2.9512 2.952,-2.9512" /><path
       id="path160"
       style="fill:#000000;fill-opacity:1;fill-rule:evenodd;stroke:none;stroke-width:0.1"
       d="m 81.526984,115.22752 c 1.0078,0 1.8719,0.8631 1.8719,1.8711 0,1.01 -0.8641,1.873 -1.8719,1.873 -1.0082,0 -1.8719,-0.863 -1.8719,-1.873 0,-1.008 0.8637,-1.8711 1.8719,-1.8711" /></g></svg>