<?xml version="1.0" encoding="UTF-8" standalone="no"?>
<svg
   xmlns:dc="http://purl.org/dc/elements/1.1/"
   xmlns:cc="http://creativecommons.org/ns#"
   xmlns:rdf="http://www.w3.org/1999/02/22-rdf-syntax-ns#"
   xmlns:svg="http://www.w3.org/2000/svg"
   xmlns="http://www.w3.org/2000/svg"
   version="1.1"
   id="svg2"
   xml:space="preserve"
   width="267.08783"
   height="34.742222"
   viewBox="0 0 267.08783 34.742222"><metadata
     id="metadata8"><rdf:RDF><cc:Work
         rdf:about=""><dc:format>image/svg+xml</dc:format><dc:type
           rdf:resource="http://purl.org/dc/dcmitype/StillImage" /><dc:title></dc:title></cc:Work></rdf:RDF></metadata><defs
     id="defs6"><linearGradient
       x1="0"
       y1="0"
       x2="1"
       y2="0"
       gradientUnits="userSpaceOnUse"
       gradientTransform="matrix(5952.8,0,0,-5952.8,0,2462.02)"
       spreadMethod="pad"
       id="linearGradient22"><stop
         style="stop-opacity:1;stop-color:#dab89c"
         offset="0"
         id="stop14" /><stop
         style="stop-opacity:1;stop-color:#dab89c"
         offset="0.00561798"
         id="stop16" /><stop
         style="stop-opacity:1;stop-color:#ddd3bd"
         offset="0.511236"
         id="stop18" /><stop
         style="stop-opacity:1;stop-color:#dab89c"
         offset="1"
         id="stop20" /></linearGradient></defs><g
     transform="matrix(1.3333333,0,0,-1.3333333,-422.70646,245.38082)"
     style="fill:#000000"
     id="g1441"><path
       id="path216"
       style="fill:#000000;fill-opacity:1;fill-rule:evenodd;stroke:none;stroke-width:0.1"
       d="m 419.02258,169.13262 c -0.647,-0.072 -1.512,0.071 -1.943,0.432 -0.36,0.143 -0.792,-0.432 -1.584,-0.576 v 0.215 c 0.576,0.073 1.008,0.361 1.368,0.649 0.216,0.431 0.216,0.792 0.216,1.152 h 0.288 c -0.072,-0.36 -0.216,-0.936 -0.144,-1.152 0.287,-0.72 1.295,-0.576 1.871,-0.576 l -0.072,-0.144" /><path
       id="path218"
       style="fill:#000000;fill-opacity:1;fill-rule:evenodd;stroke:none;stroke-width:0.1"
       d="m 418.73558,170.64462 c 0,-0.072 -0.288,-0.216 -0.36,-0.288 -0.361,-0.361 -0.865,-0.432 -1.224,-0.144 v 0.216 c 0.432,-0.433 0.791,-0.288 1.224,0 0,0.071 0.215,0.216 0.288,0.288 l 0.072,-0.072" /><path
       id="path220"
       style="fill:#000000;fill-opacity:1;fill-rule:evenodd;stroke:none;stroke-width:0.1"
       d="m 417.07958,170.21262 c -0.649,-0.144 -1.153,0 -1.729,0.287 l 0.072,0.145 c 0.577,-0.361 1.081,-0.504 1.729,-0.216 l -0.072,-0.216" /><path
       id="path222"
       style="fill:#000000;fill-opacity:1;fill-rule:evenodd;stroke:none;stroke-width:0.1"
       d="m 418.37558,169.20362 c -1.08,-2.376 1.872,-4.895 3.887,-5.832 2.664,-1.223 4.248,0 6.697,-1.223 -1.008,2.952 -2.304,5.544 -4.824,6.696 -2.592,1.224 -4.68,1.584 -5.76,0.359" /><path
       id="path224"
       style="fill:#000000;fill-opacity:1;fill-rule:evenodd;stroke:none;stroke-width:0.1"
       d="m 415.78358,169.20362 c 0.504,-0.504 -1.296,-2.519 -2.16,-3.96 -2.736,-4.536 -5.689,-2.879 -7.92,-3.383 1.008,1.944 0.647,4.104 3.095,5.975 2.233,1.801 4.609,2.448 6.985,1.368" /><path
       id="path226"
       style="fill:#000000;fill-opacity:1;fill-rule:evenodd;stroke:none;stroke-width:0.1"
       d="m 417.22358,170.86062 c 1.152,-0.936 2.448,2.088 3.6,5.255 1.439,3.745 -1.368,5.329 -2.088,7.92 -1.008,-2.087 -3.385,-2.735 -3.672,-5.399 -0.289,-3.528 1.008,-8.496 2.16,-7.776" /><path
       id="path228"
       style="fill:#000000;fill-opacity:1;fill-rule:evenodd;stroke:none;stroke-width:0.1"
       d="m 418.37558,170.42862 c 0.504,0.216 0.936,-0.072 1.512,-0.072 1.799,0 3.024,1.08 3.887,2.952 0.145,0.432 0.217,1.08 0.289,1.656 -1.368,-0.072 -2.232,-0.648 -2.952,-1.368 -0.937,-0.937 -1.152,-0.504 -2.089,-2.16 -0.215,-0.361 -0.359,-0.792 -0.647,-1.008" /><path
       id="path230"
       style="fill:#000000;fill-opacity:1;fill-rule:evenodd;stroke:none;stroke-width:0.1"
       d="m 415.63958,170.49962 c -1.009,-0.359 -1.801,-1.008 -4.896,0.937 -2.233,1.8 -1.945,3.744 -2.88,5.544 1.872,-0.72 3.6,-0.073 5.688,-2.16 2.736,-2.592 1.799,-3.456 2.088,-4.321" /><path
       id="path232"
       style="fill:#000000;fill-opacity:1;fill-rule:evenodd;stroke:none;stroke-width:0.1"
       d="m 417.22358,171.07562 c 0.719,4.249 0.287,8.497 1.44,12.313 -1.008,-3.601 -0.504,-8.28 -1.296,-12.313 -0.072,-0.071 -0.144,-0.071 -0.144,0" /><path
       id="path234"
       style="fill:#000000;fill-opacity:1;fill-rule:evenodd;stroke:none;stroke-width:0.1"
       d="m 415.42258,170.71662 c -3.095,1.151 -4.463,4.248 -7.055,5.903 2.52,-1.799 3.888,-4.823 6.983,-6.047 0.072,0 0.145,0.072 0.072,0.144" /><path
       id="path236"
       style="fill:#000000;fill-opacity:1;fill-rule:evenodd;stroke:none;stroke-width:0.1"
       d="m 418.73558,170.71662 c 2.376,0.72 3.816,2.232 5.039,4.031 -1.079,-1.799 -2.519,-3.311 -5.039,-4.175 -0.072,0 -0.072,0.072 0,0.144" /><path
       id="path238"
       style="fill:#000000;fill-opacity:1;fill-rule:evenodd;stroke:none;stroke-width:0.1"
       d="m 415.49558,169.13262 c -4.248,-1.584 -7.2,-3.96 -9.432,-6.841 2.735,3.168 5.904,5.473 9.504,6.769 0.144,0 0.072,0.143 -0.072,0.072" /><path
       id="path240"
       style="fill:#000000;fill-opacity:1;fill-rule:evenodd;stroke:none;stroke-width:0.1"
       d="m 417.29558,169.63662 c -0.072,-0.072 -0.144,-0.145 -0.144,-0.217 0,-0.431 -0.072,-0.647 -0.217,-1.008 l -0.143,0.073 c 0.288,0.431 0.36,0.864 0.072,1.223 l 0.432,-0.071" /><path
       id="path242"
       style="fill:#000000;fill-opacity:1;fill-rule:evenodd;stroke:none;stroke-width:0.1"
       d="m 416.93458,168.69962 c 0.649,-0.503 1.369,-0.719 1.369,-3.24 -0.289,-1.871 -1.584,-2.376 -2.377,-3.599 -0.287,1.368 -1.296,2.16 -0.791,4.104 0.504,2.447 1.368,2.232 1.799,2.735" /><path
       id="path244"
       style="fill:#000000;fill-opacity:1;fill-rule:evenodd;stroke:none;stroke-width:0.1"
       d="m 416.93458,168.55662 c 0.504,-2.232 -0.935,-4.105 -0.935,-6.192 0.144,2.087 1.511,3.96 1.007,6.192 0,0 -0.072,0.071 -0.072,0" /><path
       id="path246"
       style="fill:#000000;fill-opacity:1;fill-rule:evenodd;stroke:none;stroke-width:0.1"
       d="m 418.66358,169.20362 c 4.32,-1.368 7.416,-3.671 9.719,-6.479 -2.879,3.096 -6.12,5.256 -9.792,6.336 -0.143,0.072 -0.072,0.143 0.073,0.143" /><path
       id="path248"
       style="fill:#000000;fill-opacity:1;fill-rule:evenodd;stroke:none;stroke-width:0.1"
       d="m 426.87158,169.27662 c 2.231,-2.016 3.528,-4.392 3.96,-6.912 1.08,-4.968 8.136,0 12.24,0 -4.248,4.679 -9.649,6.839 -16.2,6.912" /><path
       id="path250"
       style="fill:#000000;fill-opacity:1;fill-rule:evenodd;stroke:none;stroke-width:0.1"
       d="m 447.67858,161.21262 c 1.225,0 2.233,1.008 2.233,2.232 0,1.223 -1.008,2.232 -2.233,2.232 -1.223,0 -2.231,-1.009 -2.231,-2.232 0,-1.224 1.008,-2.232 2.231,-2.232" /><path
       id="path252"
       style="fill:#000000;fill-opacity:1;fill-rule:evenodd;stroke:none;stroke-width:0.1"
       d="m 443.79158,166.10862 c 3.815,2.015 7.776,4.32 12.311,4.104 3.961,-0.144 7.992,-0.793 11.736,-2.232 9.865,-3.817 19.585,-12.096 30.818,-9.504 6.984,1.512 11.232,9.143 9.216,15.912 -1.368,4.68 -6.84,8.855 -11.592,5.976 -3.456,-2.016 -4.752,-6.768 -2.664,-10.224 1.008,-1.584 2.304,-2.16 4.032,-2.376 v 0.071 c -1.368,0.649 -2.736,1.08 -3.744,2.448 -2.664,3.672 0.072,9.504 4.68,10.296 3.528,0.577 6.767,-2.088 8.064,-5.183 2.304,-5.401 -0.072,-11.952 -5.185,-14.76 -3.959,-2.16 -9.215,-2.16 -13.319,-0.792 -11.665,3.96 -22.249,12.672 -35.138,10.512 -2.232,-0.361 -4.32,-1.153 -6.191,-2.233 l -3.024,-2.015" /><path
       id="path254"
       style="fill:#000000;fill-opacity:1;fill-rule:evenodd;stroke:none;stroke-width:0.1"
       d="m 449.55158,166.53962 c 4.032,2.088 8.135,4.536 12.887,4.248 4.248,-0.143 8.425,-0.792 12.385,-2.303 10.368,-3.96 20.593,-12.672 32.329,-10.008 7.344,1.656 11.808,9.576 9.647,16.704 -1.44,4.968 -7.128,9.288 -12.168,6.264 -3.599,-2.088 -4.967,-7.056 -2.735,-10.728 1.008,-1.656 2.375,-2.232 4.176,-2.448 l 0.072,0.072 c -1.44,0.648 -2.881,1.151 -3.961,2.592 -2.807,3.815 0.072,9.935 4.897,10.727 3.672,0.577 7.056,-2.087 8.424,-5.399 2.448,-5.616 -0.073,-12.601 -5.401,-15.48 -4.176,-2.232 -9.647,-2.304 -14.039,-0.865 -12.169,4.177 -23.257,13.321 -36.865,11.089 -2.304,-0.432 -4.464,-1.224 -6.48,-2.377 l -3.168,-2.088" /><path
       id="path256"
       style="fill:#000000;fill-opacity:1;fill-rule:evenodd;stroke:none;stroke-width:0.1"
       d="m 407.50358,169.27662 c -2.233,-2.016 -3.528,-4.392 -3.96,-6.912 -1.08,-4.968 -8.136,0 -12.24,0 4.248,4.679 9.648,6.839 16.2,6.912" /><path
       id="path258"
       style="fill:#000000;fill-opacity:1;fill-rule:evenodd;stroke:none;stroke-width:0.1"
       d="m 386.69558,161.21262 c 1.224,0 2.231,1.008 2.231,2.232 0,1.223 -1.007,2.232 -2.231,2.232 -1.224,0 -2.232,-1.009 -2.232,-2.232 0,-1.224 1.008,-2.232 2.232,-2.232" /><path
       id="path260"
       style="fill:#000000;fill-opacity:1;fill-rule:evenodd;stroke:none;stroke-width:0.1"
       d="m 390.58358,166.10862 c -3.817,2.015 -7.776,4.32 -12.313,4.104 -3.959,-0.144 -7.991,-0.793 -11.735,-2.232 -9.864,-3.817 -19.584,-12.096 -30.816,-9.504 -6.984,1.512 -11.232,9.143 -9.216,15.912 1.368,4.68 6.839,8.855 11.664,5.976 3.384,-2.016 4.679,-6.768 2.591,-10.224 -1.007,-1.584 -2.303,-2.16 -4.031,-2.376 v 0.071 c 1.367,0.649 2.736,1.08 3.744,2.448 2.664,3.672 -0.072,9.504 -4.68,10.296 -3.529,0.577 -6.769,-2.088 -8.064,-5.183 -2.305,-5.401 0.071,-11.952 5.184,-14.76 3.96,-2.16 9.216,-2.16 13.32,-0.792 11.664,3.96 22.248,12.672 35.207,10.512 2.16,-0.361 4.248,-1.153 6.121,-2.233 l 3.024,-2.015" /><path
       id="path262"
       style="fill:#000000;fill-opacity:1;fill-rule:evenodd;stroke:none;stroke-width:0.1"
       d="m 384.82358,166.53962 c -4.032,2.088 -8.137,4.536 -12.889,4.248 -4.248,-0.143 -8.424,-0.792 -12.383,-2.303 -10.369,-3.96 -20.592,-12.672 -32.328,-10.008 -7.344,1.656 -11.808,9.576 -9.648,16.704 1.439,4.968 7.128,9.288 12.168,6.264 3.599,-2.088 4.968,-7.056 2.736,-10.728 -1.008,-1.656 -2.377,-2.232 -4.176,-2.448 l -0.072,0.072 c 1.44,0.648 2.88,1.151 3.959,2.592 2.809,3.815 -0.071,9.935 -4.895,10.727 -3.672,0.577 -7.056,-2.087 -8.424,-5.399 -2.449,-5.616 0.071,-12.601 5.399,-15.48 4.177,-2.232 9.649,-2.304 14.041,-0.865 12.168,4.177 23.256,13.321 36.863,11.089 2.305,-0.432 4.465,-1.224 6.481,-2.377 l 3.168,-2.088" /></g></svg>