<?xml version="1.0" encoding="UTF-8" standalone="no"?>
<svg
   xmlns:dc="http://purl.org/dc/elements/1.1/"
   xmlns:cc="http://creativecommons.org/ns#"
   xmlns:rdf="http://www.w3.org/1999/02/22-rdf-syntax-ns#"
   xmlns:svg="http://www.w3.org/2000/svg"
   xmlns="http://www.w3.org/2000/svg"
   version="1.1"
   id="svg2"
   xml:space="preserve"
   width="305.56839"
   height="26.593332"
   viewBox="0 0 305.56839 26.593332"><metadata
     id="metadata8"><rdf:RDF><cc:Work
         rdf:about=""><dc:format>image/svg+xml</dc:format><dc:type
           rdf:resource="http://purl.org/dc/dcmitype/StillImage" /><dc:title></dc:title></cc:Work></rdf:RDF></metadata><defs
     id="defs6"><linearGradient
       x1="0"
       y1="0"
       x2="1"
       y2="0"
       gradientUnits="userSpaceOnUse"
       gradientTransform="matrix(5952.8,0,0,-5952.8,0,2462.02)"
       spreadMethod="pad"
       id="linearGradient22"><stop
         style="stop-opacity:1;stop-color:#dab89c"
         offset="0"
         id="stop14" /><stop
         style="stop-opacity:1;stop-color:#dab89c"
         offset="0.00561798"
         id="stop16" /><stop
         style="stop-opacity:1;stop-color:#ddd3bd"
         offset="0.511236"
         id="stop18" /><stop
         style="stop-opacity:1;stop-color:#dab89c"
         offset="1"
         id="stop20" /></linearGradient></defs><g
     transform="matrix(1.3333333,0,0,-1.3333333,-53.405711,445.07148)"
     style="fill:#000000"
     id="g1255"><path
       id="path162"
       style="fill:#000000;fill-opacity:1;fill-rule:evenodd;stroke:none;stroke-width:0.1"
       d="m 154.53458,326.96262 c 0.72,2.233 -0.648,3.6 -0.431,5.616 0,0.504 0.359,1.008 1.223,1.08 0.648,0.072 1.08,-0.36 1.224,-0.864 0.504,-1.8 -1.296,-5.328 -2.016,-5.832" /><path
       id="path164"
       style="fill:#000000;fill-opacity:1;fill-rule:evenodd;stroke:none;stroke-width:0.1"
       d="m 154.75058,320.62662 c -0.647,-2.232 0.648,-3.599 0.504,-5.615 -0.071,-0.505 -0.432,-1.009 -1.224,-1.081 -0.648,-0.072 -1.08,0.36 -1.224,0.864 -0.504,1.872 1.297,5.328 1.944,5.832" /><path
       id="path166"
       style="fill:#000000;fill-opacity:1;fill-rule:evenodd;stroke:none;stroke-width:0.1"
       d="m 156.11858,326.60262 c 1.729,1.584 1.296,3.456 2.449,5.112 0.288,0.432 0.864,0.649 1.583,0.288 0.648,-0.216 0.792,-0.864 0.648,-1.367 -0.504,-1.801 -3.816,-3.961 -4.68,-4.033" /><path
       id="path168"
       style="fill:#000000;fill-opacity:1;fill-rule:evenodd;stroke:none;stroke-width:0.1"
       d="m 153.16658,320.98762 c -1.727,-1.584 -1.224,-3.456 -2.376,-5.113 -0.288,-0.432 -0.863,-0.648 -1.656,-0.288 -0.576,0.217 -0.72,0.864 -0.576,1.368 0.504,1.8 3.744,3.96 4.608,4.033" /><path
       id="path170"
       style="fill:#000000;fill-opacity:1;fill-rule:evenodd;stroke:none;stroke-width:0.1"
       d="m 157.34358,325.45062 c 2.303,0.504 2.807,2.376 4.607,3.24 0.504,0.217 1.153,0.144 1.584,-0.504 0.432,-0.575 0.216,-1.152 -0.144,-1.512 -1.367,-1.368 -5.256,-1.584 -6.047,-1.224" /><path
       id="path172"
       style="fill:#000000;fill-opacity:1;fill-rule:evenodd;stroke:none;stroke-width:0.1"
       d="m 152.01558,322.13862 c -2.305,-0.503 -2.881,-2.376 -4.681,-3.24 -0.432,-0.216 -1.08,-0.144 -1.584,0.505 -0.36,0.575 -0.143,1.151 0.216,1.511 1.297,1.368 5.184,1.584 6.049,1.224" /><path
       id="path174"
       style="fill:#000000;fill-opacity:1;fill-rule:evenodd;stroke:none;stroke-width:0.1"
       d="m 157.84758,323.93862 c 2.231,-0.719 3.599,0.576 5.615,0.432 0.504,0 1.008,-0.359 1.08,-1.224 0.072,-0.648 -0.359,-1.08 -0.863,-1.224 -1.873,-0.504 -5.328,1.297 -5.832,2.016" /><path
       id="path176"
       style="fill:#000000;fill-opacity:1;fill-rule:evenodd;stroke:none;stroke-width:0.1"
       d="m 151.51158,323.65062 c -2.233,0.72 -3.673,-0.576 -5.617,-0.431 -0.504,0 -1.008,0.359 -1.152,1.223 0,0.648 0.433,1.08 0.937,1.224 1.799,0.504 5.328,-1.296 5.832,-2.016" /><path
       id="path178"
       style="fill:#000000;fill-opacity:1;fill-rule:evenodd;stroke:none;stroke-width:0.1"
       d="m 157.48658,322.35462 c 1.584,-1.728 3.456,-1.296 5.113,-2.447 0.431,-0.289 0.647,-0.865 0.287,-1.657 -0.287,-0.576 -0.863,-0.719 -1.367,-0.576 -1.873,0.504 -3.961,3.744 -4.033,4.68" /><path
       id="path180"
       style="fill:#000000;fill-opacity:1;fill-rule:evenodd;stroke:none;stroke-width:0.1"
       d="m 151.87058,325.30662 c -1.584,1.728 -3.456,1.225 -5.111,2.376 -0.433,0.288 -0.721,0.864 -0.361,1.656 0.289,0.576 0.936,0.72 1.369,0.576 1.871,-0.504 4.031,-3.744 4.103,-4.608" /><path
       id="path182"
       style="fill:#000000;fill-opacity:1;fill-rule:evenodd;stroke:none;stroke-width:0.1"
       d="m 156.33458,321.13062 c 0.504,-2.304 2.376,-2.807 3.24,-4.608 0.216,-0.504 0.144,-1.152 -0.576,-1.656 -0.504,-0.36 -1.08,-0.144 -1.44,0.216 -1.367,1.296 -1.584,5.256 -1.224,6.048" /><path
       id="path184"
       style="fill:#000000;fill-opacity:1;fill-rule:evenodd;stroke:none;stroke-width:0.1"
       d="m 152.95058,326.45862 c -0.431,2.304 -2.304,2.88 -3.168,4.68 -0.215,0.433 -0.215,1.081 0.504,1.584 0.576,0.36 1.153,0.144 1.512,-0.216 1.368,-1.296 1.512,-5.256 1.152,-6.048" /><path
       id="path186"
       style="fill:#000000;fill-opacity:1;fill-rule:evenodd;stroke:none;stroke-width:0.1"
       d="m 154.67958,321.20262 c 1.439,0 2.592,1.152 2.592,2.592 0,1.44 -1.153,2.592 -2.592,2.592 -1.441,0 -2.664,-1.152 -2.664,-2.592 0,-1.44 1.223,-2.592 2.664,-2.592" /><path
       id="path188"
       style="fill:#000000;fill-opacity:1;fill-rule:evenodd;stroke:none;stroke-width:0.1"
       d="m 163.67958,333.80362 c 3.959,-1.584 6.767,-5.473 6.767,-10.009 0,-4.535 -2.808,-8.424 -6.767,-9.936 2.807,2.376 4.607,5.904 4.607,9.936 0,4.032 -1.8,7.56 -4.607,10.009" /><path
       id="path190"
       style="fill:#000000;fill-opacity:1;fill-rule:evenodd;stroke:none;stroke-width:0.1"
       d="m 169.07858,331.85862 c 3.168,-1.296 5.472,-4.392 5.472,-8.064 0,-3.672 -2.304,-6.767 -5.472,-7.991 2.232,1.871 3.744,4.751 3.744,7.991 0,3.24 -1.512,6.12 -3.744,8.064" /><path
       id="path192"
       style="fill:#000000;fill-opacity:1;fill-rule:evenodd;stroke:none;stroke-width:0.1"
       d="m 174.47858,329.48262 c 2.304,-0.864 3.888,-3.096 3.888,-5.688 0,-2.592 -1.584,-4.824 -3.888,-5.688 1.656,1.368 2.664,3.384 2.664,5.688 0,2.304 -1.008,4.321 -2.664,5.688" /><path
       id="path194"
       style="fill:#000000;fill-opacity:1;fill-rule:evenodd;stroke:none;stroke-width:0.1"
       d="m 182.61458,321.77962 c 1.08,0 1.944,0.935 1.944,2.015 0,1.08 -0.864,2.016 -1.944,2.016 -1.08,0 -2.015,-0.936 -2.015,-2.016 0,-1.08 0.935,-2.015 2.015,-2.015" /><path
       id="path196"
       style="fill:#000000;fill-opacity:1;fill-rule:evenodd;stroke:none;stroke-width:0.1"
       d="m 186.43158,323.36362 h 55.943 v 0.863 h -55.943 v -0.863" /><path
       id="path198"
       style="fill:#000000;fill-opacity:1;fill-rule:evenodd;stroke:none;stroke-width:0.1"
       d="m 246.33658,321.77962 c 1.08,0 2.015,0.935 2.015,2.015 0,1.08 -0.935,2.016 -2.015,2.016 -1.081,0 -1.946,-0.936 -1.946,-2.016 0,-1.08 0.865,-2.015 1.946,-2.015" /><path
       id="path200"
       style="fill:#000000;fill-opacity:1;fill-rule:evenodd;stroke:none;stroke-width:0.1"
       d="m 250.15258,323.36362 h 19.078 v 0.863 h -19.078 v -0.863" /><path
       id="path202"
       style="fill:#000000;fill-opacity:1;fill-rule:evenodd;stroke:none;stroke-width:0.1"
       d="m 145.60758,333.80362 c -3.961,-1.584 -6.769,-5.473 -6.769,-10.009 0,-4.535 2.808,-8.424 6.769,-9.936 -2.809,2.376 -4.609,5.904 -4.609,9.936 0,4.032 1.8,7.56 4.609,10.009" /><path
       id="path204"
       style="fill:#000000;fill-opacity:1;fill-rule:evenodd;stroke:none;stroke-width:0.1"
       d="m 140.20658,331.85862 c -3.168,-1.296 -5.472,-4.392 -5.472,-8.064 0,-3.672 2.304,-6.767 5.472,-7.991 -2.232,1.871 -3.744,4.751 -3.744,7.991 0,3.24 1.512,6.12 3.744,8.064" /><path
       id="path206"
       style="fill:#000000;fill-opacity:1;fill-rule:evenodd;stroke:none;stroke-width:0.1"
       d="m 134.80658,329.48262 c -2.304,-0.864 -3.888,-3.096 -3.888,-5.688 0,-2.592 1.584,-4.824 3.888,-5.688 -1.656,1.368 -2.664,3.384 -2.664,5.688 0,2.304 1.008,4.321 2.664,5.688" /><path
       id="path208"
       style="fill:#000000;fill-opacity:1;fill-rule:evenodd;stroke:none;stroke-width:0.1"
       d="m 126.67058,321.77962 c 1.08,0 2.017,0.935 2.017,2.015 0,1.08 -0.937,2.016 -2.017,2.016 -1.079,0 -1.944,-0.936 -1.944,-2.016 0,-1.08 0.865,-2.015 1.944,-2.015" /><path
       id="path210"
       style="fill:#000000;fill-opacity:1;fill-rule:evenodd;stroke:none;stroke-width:0.1"
       d="m 66.910984,323.36362 h 55.944596 v 0.863 H 66.910984 v -0.863" /><path
       id="path212"
       style="fill:#000000;fill-opacity:1;fill-rule:evenodd;stroke:none;stroke-width:0.1"
       d="m 62.950784,321.77962 c 1.0801,0 1.9434,0.935 1.9434,2.015 0,1.08 -0.8633,2.016 -1.9434,2.016 -1.0801,0 -2.0156,-0.936 -2.0156,-2.016 0,-1.08 0.9355,-2.015 2.0156,-2.015" /><path
       id="path214"
       style="fill:#000000;fill-opacity:1;fill-rule:evenodd;stroke:none;stroke-width:0.1"
       d="m 40.054284,323.36362 h 19.0801 v 0.863 h -19.0801 v -0.863" /></g></svg>